{
  "HALProvider": {
    "Other Devices": {
      "Talon FX (v6)[0]/Rotor Sensor": {
        "header": {
          "open": true
        }
      }
    },
    "RoboRIO": {
      "window": {
        "visible": true
      }
    }
  },
  "NTProvider": {
    "types": {
      "/FMSInfo": "FMSInfo",
      "/SmartDashboard/Arm Mechanism": "Mechanism2d",
      "/SmartDashboard/Arm/Subsystem": "Subsystem",
      "/SmartDashboard/Field": "Field2d",
      "/SmartDashboard/Pigeon 2 (v6) [0]": "Gyro",
      "/SmartDashboard/arm/Subsystem": "Subsystem"
    },
    "windows": {
      "/SmartDashboard/Arm Mechanism": {
        "window": {
          "visible": true
        }
      },
      "/SmartDashboard/Field": {
        "XModules": {
          "image": "D:\\programming\\arm_test\\src\\main\\simAssets\\swerve_module.png",
          "length": 0.30000001192092896,
          "width": 0.30000001192092896
        },
        "arm": {
          "arrowColor": [
            202.4999542236328,
            0.0,
            255.0,
            255.0
          ],
          "arrowSize": 28,
          "color": [
            1.0,
            1.0,
            1.0,
            255.0
          ],
          "length": 0.5,
          "width": 0.4000000059604645
        },
        "bottom": 1476,
        "height": 8.210550308227539,
        "left": 150,
        "right": 2961,
        "top": 79,
        "width": 16.541748046875,
        "window": {
          "visible": true
        }
      },
      "/SmartDashboard/field": {
        "XModules": {
          "image": "D:\\programming\\arm_test\\src\\main\\simAssets\\swerve_module.png",
          "length": 0.30000001192092896,
          "width": 0.30000001192092896
        },
        "arm": {
          "arrowColor": [
            255.0,
            0.0,
            172.5000457763672,
            255.0
          ],
          "color": [
            1.0,
            1.0,
            1.0,
            255.0
          ],
          "length": 0.4000000059604645,
          "width": 0.30000001192092896
        },
        "bottom": 1476,
        "height": 8.210550308227539,
        "left": 150,
        "right": 2961,
        "top": 79,
        "width": 16.541748046875
      }
    }
  },
  "NetworkTables": {
    "transitory": {
      "SmartDashboard": {
        "Arm": {
          "Command Fix": {
            "open": true
          },
          "open": true
        },
        "open": true
      }
    }
  },
  "NetworkTables Info": {
    "Server": {
      "Subscribers": {
        "open": true
      },
      "open": true
    }
  }
}
