{
    "drive": {
      "type": "talonfx",
      "id": 6,
      "canbus": "canivore"
    },
    "angle": {
      "type": "talonfx",
      "id": 2,
      "canbus": "canivore"
    },
    "encoder": {
      "type": "cancoder",
      "id": 2,
      "canbus": "canivore"
    },
    "inverted": {
      "drive": false,
      "angle": true
    },
    "absoluteEncoderOffset": 55,
    "location": {
      "front": 9.875,
      "left": -11.875
    }
  }